﻿<?xml version="1.0" encoding="utf-8"?>
<svg version="1.1" xmlns:xlink="http://www.w3.org/1999/xlink" width="38px" height="98px" xmlns="http://www.w3.org/2000/svg">
  <g transform="matrix(1 0 0 1 -520 -412 )">
    <path d="M 20.1674280177564 0.21383609841007  L 37.4922593359154 9.18732825793523  C 26.2861226712026 31.166415961349  20 56.2260094346014  20 83  C 20 87.2015719965351  20.1548033160577 91.3609249068726  20.4591319398148 95.4727792621112  L 0.547570236610795 97.0294494551948  C 0.182662329522259 92.3618671116373  0 87.6818247206133  0 83  C 0 54.188257665426  6.91624122219855 25.7974743241025  20.1674280177564 0.21383609841007  Z " fill-rule="nonzero" fill="#9c27b0" stroke="none" transform="matrix(1 0 0 1 520 412 )" />
  </g>
</svg>