﻿<?xml version="1.0" encoding="utf-8"?>
<svg version="1.1" xmlns:xlink="http://www.w3.org/1999/xlink" width="94px" height="43px" xmlns="http://www.w3.org/2000/svg">
  <g transform="matrix(1 0 0 1 -606 -315 )">
    <path d="M 94 20  C 63.3704901159164 20  34.9846829002141 28.2269097840648  10.8879228114458 42.6353896905291  L 0.81985658161318 25.9952569804136  C 28.9259107495541 8.98976671469745  61.1497796039571 0  94 0  L 94 20  Z " fill-rule="nonzero" fill="#00bcd4" stroke="none" transform="matrix(1 0 0 1 606 315 )" />
  </g>
</svg>